Data Transformation
…
---
background-image: url(images/transform/applied-ds-trans.png)
background-position: center 60%
background-size: 85%

# .nobold[(Applied)] Data Science

---

# Example Data: `babynames`

```r
library(babynames)
babynames
#> # A tibble: 1,924,665 x 5
#>     year sex   name          n   prop
#>    <dbl> <chr> <chr>     <int>  <dbl>
#>  1  1880 F     Mary       7065 0.0724
#>  2  1880 F     Anna       2604 0.0267
#>  3  1880 F     Emma       2003 0.0205
#>  4  1880 F     Elizabeth  1939 0.0199
#>  5  1880 F     Minnie     1746 0.0179
#>  6  1880 F     Margaret   1578 0.0162
#>  7  1880 F     Ida        1472 0.0151
#>  8  1880 F     Alice      1414 0.0145
#>  9  1880 F     Bertha     1320 0.0135
#> 10  1880 F     Sarah      1288 0.0132
#> # … with 1,924,655 more rows
```
…
.panelset[
.panel[.panel-name[Code]

```r
select(babynames, n)
```

]

.panel[.panel-name[Result]

```
# A tibble: 1,924,665 x 1
       n
   <int>
 1  7065
 2  2604
 3  2003
 4  1939
 5  1746
 6  1578
 7  1472
 8  1414
 9  1320
10  1288
# … with 1,924,655 more rows
```

]
]

---
# Example Data: `storms`

```r
storms
#> # A tibble: 10,010 x 13
#>    name   year month   day  hour   lat  long status      category  wind pressure
#>    <chr> <dbl> <dbl> <int> <dbl> <dbl> <dbl> <chr>       <ord>    <int>    <int>
#>  1 Amy    1975     6    27     0  27.5 -79   tropical d… -1          25     1013
#>  2 Amy    1975     6    27     6  28.5 -79   tropical d… -1          25     1013
#>  3 Amy    1975     6    27    12  29.5 -79   tropical d… -1          25     1013
#>  4 Amy    1975     6    27    18  30.5 -79   tropical d… -1          25     1013
#>  5 Amy    1975     6    28     0  31.5 -78.8 tropical d… -1          25     1012
#>  6 Amy    1975     6    28     6  32.4 -78.7 tropical d… -1          25     1012
#>  7 Amy    1975     6    28    12  33.3 -78   tropical d… -1          25     1011
#>  8 Amy    1975     6    28    18  34   -77   tropical d… -1          30     1006
#>  9 Amy    1975     6    29     0  34.4 -75.8 tropical s… 0           35     1004
#> 10 Amy    1975     6    29     6  34   -74.8 tropical s… 0           40     1002
#> # … with 10,000 more rows, and 2 more variables: ts_diameter <dbl>,
#> #   hu_diameter <dbl>
```
…
```r
select(babynames, ends_with("n"))
```

01:00

---
class: pop-quiz

.panelset[
.panel[.panel-name[Option 1]

```r
select(babynames, -c(year, sex, prop))
#> # A tibble: 1,924,665 x 2
#>    name          n
#>    <chr>     <int>
#>  1 Mary       7065
#>  2 Anna       2604
#>  3 Emma       2003
#>  4 Elizabeth  1939
#>  5 Minnie     1746
#>  6 Margaret   1578
#>  7 Ida        1472
#>  8 Alice      1414
#>  9 Bertha     1320
#> 10 Sarah      1288
#> # … with 1,924,655 more rows
```
]

.panel[.panel-name[Option 2]

```r
select(babynames, name:n)
#> # A tibble: 1,924,665 x 2
#>    name          n
#>    <chr>     <int>
#>  1 Mary       7065
#>  2 Anna       2604
#>  3 Emma       2003
#>  4 Elizabeth  1939
#>  5 Minnie     1746
#>  6 Margaret   1578
#>  7 Ida        1472
#>  8 Alice      1414
#>  9 Bertha     1320
#> 10 Sarah      1288
#> # … with 1,924,655 more rows
```
]

.panel[.panel-name[Option 3]

```r
select(babynames, starts_with("n"))
#> # A tibble: 1,924,665 x 2
#>    name          n
#>    <chr>     <int>
#>  1 Mary       7065
#>  2 Anna       2604
#>  3 Emma       2003
#>  4 Elizabeth  1939
#>  5 Minnie     1746
#>  6 Margaret   1578
#>  7 Ida        1472
#>  8 Alice      1414
#>  9 Bertha     1320
#> 10 Sarah      1288
#> # … with 1,924,655 more rows
```
]

.panel[.panel-name[Option 4]

```r
select(babynames, ends_with("n"))
#> # A tibble: 1,924,665 x 1
#>        n
#>    <int>
#>  1  7065
#>  2  2604
#>  3  2003
#>  4  1939
#>  5  1746
#>  6  1578
#>  7  1472
#>  8  1414
#>  9  1320
#> 10  1288
#> # … with 1,924,655 more rows
```
…
```r
filter(babynames, name == "Sea" & sex == "F")
#> # A tibble: 2 x 5
#>    year sex   name      n       prop
#>   <dbl> <chr> <chr> <int>      <dbl>
#> 1  1982 F     Sea       5 0.00000276
#> 2  1998 F     Sea       5 0.00000258
```
]

.panel[.panel-name[1880]

```r
filter(babynames, n %in% c(5, 6), year == 1880)
#> # A tibble: 455 x 5
#>     year sex   name        n      prop
#>    <dbl> <chr> <chr>   <int>     <dbl>
#>  1  1880 F     Abby        6 0.0000615
#>  2  1880 F     Aileen      6 0.0000615
#>  3  1880 F     Alba        6 0.0000615
#>  4  1880 F     Alda        6 0.0000615
#>  5  1880 F     Alla        6 0.0000615
#>  6  1880 F     Alverta     6 0.0000615
#>  7  1880 F     Ara         6 0.0000615
#>  8  1880 F     Ardelia     6 0.0000615
#>  9  1880 F     Ardella     6 0.0000615
#> 10  1880 F     Arrie       6 0.0000615
#> # … with 445 more rows
```
]

.panel[.panel-name[1880 Alternate]

```r
filter(babynames, (n == 5 | n == 6) & year == 1880)
#> # A tibble: 455 x 5
#>     year sex   name        n      prop
#>    <dbl> <chr> <chr>   <int>     <dbl>
#>  1  1880 F     Abby        6 0.0000615
#>  2  1880 F     Aileen      6 0.0000615
#>  3  1880 F     Alba        6 0.0000615
#>  4  1880 F     Alda        6 0.0000615
#>  5  1880 F     Alla        6 0.0000615
#>  6  1880 F     Alverta     6 0.0000615
#>  7  1880 F     Ara         6 0.0000615
#>  8  1880 F     Ardelia     6 0.0000615
#>  9  1880 F     Ardella     6 0.0000615
#> 10  1880 F     Arrie       6 0.0000615
#> # … with 445 more rows
```
]

.panel[.panel-name[Cars]

```r
filter(babynames, name %in% c("Acura", "Lexus", "Yugo"))
#> # A tibble: 57 x 5
#>     year sex   name      n       prop
#>    <dbl> <chr> <chr> <int>      <dbl>
#>  1  1990 F     Lexus    36 0.0000175 
#>  2  1990 M     Lexus    12 0.00000558
#>  3  1991 F     Lexus   102 0.0000502 
#>  4  1991 M     Lexus    16 0.00000755
#>  5  1992 F     Lexus   193 0.0000963 
#>  6  1992 M     Lexus    25 0.0000119 
#>  7  1993 F     Lexus   285 0.000145  
#>  8  1993 M     Lexus    30 0.0000145 
#>  9  1994 F     Lexus   381 0.000195  
#> 10  1994 F     Acura     6 0.00000308
#> # … with 47 more rows
```
]

.panel[.panel-name[Cars Alternate]

```r
filter(babynames, name == "Acura" | name == "Lexus" | name == "Yugo")
#> # A tibble: 57 x 5
#>     year sex   name      n       prop
#>    <dbl> <chr> <chr> <int>      <dbl>
#>  1  1990 F     Lexus    36 0.0000175 
#>  2  1990 M     Lexus    12 0.00000558
#>  3  1991 F     Lexus   102 0.0000502 
#>  4  1991 M     Lexus    16 0.00000755
#>  5  1992 F     Lexus   193 0.0000963 
#>  6  1992 M     Lexus    25 0.0000119 
#>  7  1993 F     Lexus   285 0.000145  
#>  8  1993 M     Lexus    30 0.0000145 
#>  9  1994 F     Lexus   381 0.000195  
#> 10  1994 F     Acura     6 0.00000308
#> # … with 47 more rows
```
…
.panelset[
.panel[.panel-name[Code]

```r
arrange(babynames, n, prop)
```

]

.panel[.panel-name[Result]

```
# A tibble: 1,924,665 x 5
    year sex   name            n       prop
   <dbl> <chr> <chr>       <int>      <dbl>
 1  2007 M     Aaban           5 0.00000226
 2  2007 M     Aareon          5 0.00000226
 3  2007 M     Aaris           5 0.00000226
 4  2007 M     Abd             5 0.00000226
 5  2007 M     Abdulazeez      5 0.00000226
 6  2007 M     Abdulhadi       5 0.00000226
 7  2007 M     Abdulhamid      5 0.00000226
 8  2007 M     Abdulkadir      5 0.00000226
 9  2007 M     Abdulraheem     5 0.00000226
10  2007 M     Abdulrahim      5 0.00000226
# … with 1,924,655 more rows
```
…
02:00

---
class: your-turn

.panelset[
.panel[.panel-name[prop]

```r
arrange(babynames, desc(prop))
# A tibble: 1,924,665 x 5
    year sex   name        n   prop
   <dbl> <chr> <chr>   <int>  <dbl>
 1  1880 M     John     9655 0.0815
 2  1881 M     John     8769 0.0810
 3  1880 M     William  9532 0.0805
 4  1883 M     John     8894 0.0791
 5  1881 M     William  8524 0.0787
 6  1882 M     John     9557 0.0783
 7  1884 M     John     9388 0.0765
 8  1882 M     William  9298 0.0762
 9  1886 M     John     9026 0.0758
10  1885 M     John     8756 0.0755
# … with 1,924,655 more rows
```
]

.panel[.panel-name[n]

```r
arrange(babynames, desc(n))
# A tibble: 1,924,665 x 5
    year sex   name        n   prop
   <dbl> <chr> <chr>   <int>  <dbl>
 1  1947 F     Linda   99686 0.0548
 2  1948 F     Linda   96209 0.0552
 3  1947 M     James   94756 0.0510
 4  1957 M     Michael 92695 0.0424
 5  1947 M     Robert  91642 0.0493
 6  1949 F     Linda   91016 0.0518
 7  1956 M     Michael 90620 0.0423
 8  1958 M     Michael 90520 0.0420
 9  1948 M     James   88588 0.0497
10  1954 M     Michael 88514 0.0428
# … with 1,924,655 more rows
```
…
# Consider

.pull-left[
How would you do the following to the `babynames` data:

1. Filter to only the names Sansa and Arya;
2. Arrange by **`name`** and then **`year`**; and
3. Remove the **`prop`** variable
]

.pull-right[

```
# A tibble: 67 x 4
    year sex   name      n
   <dbl> <chr> <chr> <int>
 1  1982 M     Arya     12
 2  1983 M     Arya      7
 3  1984 M     Arya      9
 4  1985 M     Arya     20
 5  1986 F     Arya      5
 6  1986 M     Arya     18
 7  1987 M     Arya     22
 8  1988 F     Arya      5
 9  1988 M     Arya     22
10  1989 M     Arya     30
# … with 57 more rows
```
…
# Reconsider

.pull-left[
How would you do the following to the `babynames` data:

1. Filter to only the names Sansa and Arya;
2. Arrange by **`name`** and then **`year`**; and
3. Remove the **`prop`** variable
]

.pull-right[

```
# A tibble: 67 x 4
    year sex   name      n
   <dbl> <chr> <chr> <int>
 1  1982 M     Arya     12
 2  1983 M     Arya      7
 3  1984 M     Arya      9
 4  1985 M     Arya     20
 5  1986 F     Arya      5
 6  1986 M     Arya     18
 7  1987 M     Arya     22
 8  1988 F     Arya      5
 9  1988 M     Arya     22
10  1989 M     Arya     30
# … with 57 more rows
```
]

---
class: pop-quiz

```r
babynames %>%
  filter(name %in% c("Sansa", "Arya")) %>%
  arrange(name, year) %>%
  select(-prop)
#> # A tibble: 67 x 4
#>     year sex   name      n
#>    <dbl> <chr> <chr> <int>
#>  1  1982 M     Arya     12
#>  2  1983 M     Arya      7
#>  3  1984 M     Arya      9
#>  4  1985 M     Arya     20
#>  5  1986 F     Arya      5
#>  6  1986 M     Arya     18
#>  7  1987 M     Arya     22
#>  8  1988 F     Arya      5
#>  9  1988 M     Arya     22
#> 10  1989 M     Arya     30
#> # … with 57 more rows
```
…
```r
babynames %>%
  filter(sex == "F", year == 2015) %>%
  select(name, n) %>%
  arrange(desc(n))
```

]

.panel[.panel-name[Results]

```
# A tibble: 19,074 x 2
   name          n
   <chr>     <int>
 1 Emma      20435
 2 Olivia    19669
 3 Sophia    17402
 4 Ava       16361
 5 Isabella  15594
 6 Mia       14892
 7 Abigail   12390
 8 Emily     11780
 9 Charlotte 11390
10 Harper    10291
# … with 19,064 more rows
```
…
---
class: middle

<code class ='r hljs remark-code'>group_by(.data, <span style="background-color:#FED766;color:#009FB7">...</span>)</code>

???

Variables to group by

---

```r
group_by(babynames, sex)
#> # A tibble: 1,924,665 x 5
#> # Groups:   sex [2]
#>     year sex   name          n   prop
#>    <dbl> <chr> <chr>     <int>  <dbl>
#>  1  1880 F     Mary       7065 0.0724
#>  2  1880 F     Anna       2604 0.0267
#>  3  1880 F     Emma       2003 0.0205
#>  4  1880 F     Elizabeth  1939 0.0199
#>  5  1880 F     Minnie     1746 0.0179
#>  6  1880 F     Margaret   1578 0.0162
#>  7  1880 F     Ida        1472 0.0151
#>  8  1880 F     Alice      1414 0.0145
#>  9  1880 F     Bertha     1320 0.0135
#> 10  1880 F     Sarah      1288 0.0132
#> # … with 1,924,655 more rows
```
…
```r
babynames %>%
  group_by(name, sex) %>%
  summarize(total = sum(n)) %>%
  arrange(desc(total))
```

]

.panel[.panel-name[Result]

```
# A tibble: 107,973 x 3
# Groups:   name [97,310]
   name    sex     total
   <chr>   <chr>   <int>
 1 James   M     5150472
 2 John    M     5115466
 3 Robert  M     4814815
 4 Michael M     4350824
 5 Mary    F     4123200
 6 William M     4102604
 7 David   M     3611329
 8 Joseph  M     2603445
 9 Richard M     2563082
10 Charles M     2386048
# … with 107,963 more rows
```
…
.panelset[
.panel[.panel-name[Code]

```r
babynames %>%
  mutate(rank = min_rank(desc(prop)))
```

]

.panel[.panel-name[Result]

```
# A tibble: 1,924,665 x 6
    year sex   name          n   prop  rank
   <dbl> <chr> <chr>     <int>  <dbl> <int>
 1  1880 F     Mary       7065 0.0724    14
 2  1880 F     Anna       2604 0.0267   709
 3  1880 F     Emma       2003 0.0205  1131
 4  1880 F     Elizabeth  1939 0.0199  1192
 5  1880 F     Minnie     1746 0.0179  1427
 6  1880 F     Margaret   1578 0.0162  1683
 7  1880 F     Ida        1472 0.0151  1897
 8  1880 F     Alice      1414 0.0145  2039
 9  1880 F     Bertha     1320 0.0135  2279
10  1880 F     Sarah      1288 0.0132  2387
# … with 1,924,655 more rows
```
…
```r
babynames %>%
  group_by(year, sex) %>%
  mutate(rank = min_rank(desc(prop))) %>%
  group_by(name, sex) %>%
  summarize(score = median(rank)) %>%
  arrange(score)
```

]

.panel[.panel-name[Result]

```
# A tibble: 107,973 x 3
# Groups:   name [97,310]
   name      sex   score
   <chr>     <chr> <dbl>
 1 Mary      F       1  
 2 James     M       3  
 3 John      M       3  
 4 William   M       4  
 5 Robert    M       6  
 6 Michael   M       7.5
 7 Charles   M       9  
 8 Elizabeth F      10  
 9 Joseph    M      10  
10 Thomas    M      11  
# … with 107,963 more rows
```
…
# Joining Data Sets

<a href="https://r4ds.had.co.nz/relational-data.html">
  <img class="norm-book" src="images/books/r4ds-data-join.png">
</a>

---
# Example Data: `nycflights13`

```r
library(nycflights13)
flights
#> # A tibble: 336,776 x 19
#>     year month   day dep_time sched_dep_time dep_delay arr_time sched_arr_time
#>    <int> <int> <int>    <int>          <int>     <dbl>    <int>          <int>
#>  1  2013     1     1      517            515         2      830            819
#>  2  2013     1     1      533            529         4      850            830
#>  3  2013     1     1      542            540         2      923            850
#>  4  2013     1     1      544            545        -1     1004           1022
#>  5  2013     1     1      554            600        -6      812            837
#>  6  2013     1     1      554            558        -4      740            728
#>  7  2013     1     1      555            600        -5      913            854
#>  8  2013     1     1      557            600        -3      709            723
#>  9  2013     1     1      557            600        -3      838            846
#> 10  2013     1     1      558            600        -2      753            745
#> # … with 336,766 more rows, and 11 more variables: arr_delay <dbl>,
#> #   carrier <chr>, flight <int>, tailnum <chr>, origin <chr>, dest <chr>,
#> #   air_time <dbl>, distance <dbl>, hour <dbl>, minute <dbl>, time_hour <dttm>
```
…
.panelset[
.panel[.panel-name[Code]

```r
airports %>%
  semi_join(flights, by = c("faa" = "dest")) %>%
  distinct()
```

]

.panel[.panel-name[Result]

```
#> # A tibble: 101 x 8
#>    faa   name                         lat    lon   alt    tz dst   tzone        
#>    <chr> <chr>                      <dbl>  <dbl> <dbl> <dbl> <chr> <chr>        
#>  1 ABQ   Albuquerque International…  35.0 -107.   5355    -7 A     America/Denv…
#>  2 ACK   Nantucket Mem               41.3  -70.1    48    -5 A     America/New_…
#>  3 ALB   Albany Intl                 42.7  -73.8   285    -5 A     America/New_…
#>  4 ANC   Ted Stevens Anchorage Intl  61.2 -150.    152    -9 A     America/Anch…
#>  5 ATL   Hartsfield Jackson Atlant…  33.6  -84.4  1026    -5 A     America/New_…
#>  6 AUS   Austin Bergstrom Intl       30.2  -97.7   542    -6 A     America/Chic…
#>  7 AVL   Asheville Regional Airport  35.4  -82.5  2165    -5 A     America/New_…
#>  8 BDL   Bradley Intl                41.9  -72.7   173    -5 A     America/New_…
#>  9 BGR   Bangor Intl                 44.8  -68.8   192    -5 A     America/New_…
#> 10 BHM   Birmingham Intl             33.6  -86.8   644    -6 A     America/Chic…
#> # … with 91 more rows
```
…
