Data Types
…
<style>
.yellow {color: #FED766;}
.blue {color: #009FB7;}
</style>

---
class: pop-quiz

# Pop quiz!

What types of data are in this data set?

```
# A tibble: 336,776 x 6
   time_hour           name          air_time             distance day   delayed
   <dttm>              <chr>         <Duration>              <dbl> <ord> <lgl>  
 1 2013-01-01 05:00:00 United Air L… 13620s (~3.78 hours)     1400 Tues… TRUE   
 2 2013-01-01 05:00:00 United Air L… 13620s (~3.78 hours)     1416 Tues… TRUE   
 3 2013-01-01 05:00:00 American Air… 9600s (~2.67 hours)      1089 Tues… TRUE   
 4 2013-01-01 05:00:00 JetBlue Airw… 10980s (~3.05 hours)     1576 Tues… FALSE  
 5 2013-01-01 06:00:00 Delta Air Li… 6960s (~1.93 hours)       762 Tues… FALSE  
 6 2013-01-01 05:00:00 United Air L… 9000s (~2.5 hours)        719 Tues… TRUE   
 7 2013-01-01 06:00:00 JetBlue Airw… 9480s (~2.63 hours)      1065 Tues… TRUE   
 8 2013-01-01 06:00:00 ExpressJet A… 3180s (~53 minutes)       229 Tues… FALSE  
 9 2013-01-01 06:00:00 JetBlue Airw… 8400s (~2.33 hours)       944 Tues… FALSE  
10 2013-01-01 06:00:00 American Air… 8280s (~2.3 hours)        733 Tues… TRUE   
# … with 336,766 more rows
```
…
typeof(FALSE)
#> [1] "logical"

typeof(c(TRUE, TRUE, FALSE))
#> [1] "logical"
```

---

```r
flights %>%
  mutate(delayed = arr_delay > 0) %>%
  select(arr_delay, delayed)
#> # A tibble: 336,776 x 2
#>    arr_delay delayed
#>        <dbl> <lgl>  
#>  1        11 TRUE   
#>  2        20 TRUE   
#>  3        33 TRUE   
#>  4       -18 FALSE  
#>  5       -25 FALSE  
#>  6        12 TRUE   
#>  7        19 TRUE   
#>  8       -14 FALSE  
#>  9        -8 FALSE  
#> 10         8 TRUE   
#> # … with 336,766 more rows
```
…
# Consider

Discuss in the chat: Are boys or girls names more likely to end in a vowel?

01:00

---
class: pop-quiz

How can we calculate the proportion of boys and girls names that end in a vowel?

```r
babynames
#> # A tibble: 1,924,665 x 5
#>     year sex   name          n   prop
#>    <dbl> <chr> <chr>     <int>  <dbl>
#>  1  1880 F     Mary       7065 0.0724
#>  2  1880 F     Anna       2604 0.0267
#>  3  1880 F     Emma       2003 0.0205
#>  4  1880 F     Elizabeth  1939 0.0199
#>  5  1880 F     Minnie     1746 0.0179
#>  6  1880 F     Margaret   1578 0.0162
#>  7  1880 F     Ida        1472 0.0151
#>  8  1880 F     Alice      1414 0.0145
#>  9  1880 F     Bertha     1320 0.0135
#> 10  1880 F     Sarah      1288 0.0132
#> # … with 1,924,655 more rows
```
…
---
class: pop-quiz

# Consider

Discuss in the chat: Do married people watch more or less TV than single people?

01:00

---
# Example data: `gss_cat`

```r
gss_cat
#> # A tibble: 21,483 x 9
#>     year marital     age race  rincome    partyid     relig     denom    tvhours
#>    <int> <fct>     <int> <fct> <fct>      <fct>       <fct>     <fct>      <int>
#>  1  2000 Never ma…    26 White $8000 to … Ind,near r… Protesta… Souther…      12
#>  2  2000 Divorced     48 White $8000 to … Not str re… Protesta… Baptist…      NA
#>  3  2000 Widowed      67 White Not appli… Independent Protesta… No deno…       2
#>  4  2000 Never ma…    39 White Not appli… Ind,near r… Orthodox… Not app…       4
#>  5  2000 Divorced     25 White Not appli… Not str de… None      Not app…       1
#>  6  2000 Married      25 White $20000 - … Strong dem… Protesta… Souther…      NA
#>  7  2000 Never ma…    36 White $25000 or… Not str re… Christian Not app…       3
#>  8  2000 Divorced     44 White $7000 to … Ind,near d… Protesta… Luthera…      NA
#>  9  2000 Married      44 White $25000 or… Not str de… Protesta… Other          0
#> 10  2000 Married      47 White $25000 or… Strong rep… Protesta… Souther…       3
#> # … with 21,473 more rows
```
…
