Import Data
…
.smallish[

```r
nimbus <- read_csv(here("materials", "data", "nimbus.csv"))
#> 
#> ── Column specification ────────────────────────────────────────────────────────
#> cols(
#>   date = col_datetime(format = ""),
#>   longitude = col_double(),
#>   latitude = col_double(),
#>   ozone = col_character()
#> )
nimbus
#> # A tibble: 18,963 x 4
#>    date                longitude latitude ozone
#>    <dttm>                  <dbl>    <dbl> <chr>
#>  1 1985-10-01 00:00:00     -179.    -73.5 302  
#>  2 1985-10-01 00:00:00     -178.    -73.5 302  
#>  3 1985-10-01 00:00:00     -177.    -73.5 302  
#>  4 1985-10-01 00:00:00     -176.    -73.5 302  
#>  5 1985-10-01 00:00:00     -174.    -73.5 304  
#>  6 1985-10-01 00:00:00     -173.    -73.5 304  
#>  7 1985-10-01 00:00:00     -172.    -73.5 304  
#>  8 1985-10-01 00:00:00     -171.    -73.5 304  
#>  9 1985-10-01 00:00:00     -164.    -73.5 287  
#> 10 1985-10-01 00:00:00     -163.    -73.5 287  
#> # … with 18,953 more rows
```
…
--

.pull-right.small[

```
#> # A tibble: 18,963 x 4
#>    date                longitude latitude ozone
#>    <dttm>                  <dbl>    <dbl> <chr>
#>  1 1985-10-01 00:00:00     -179.    -73.5 302  
#>  2 1985-10-01 00:00:00     -178.    -73.5 302  
#>  3 1985-10-01 00:00:00     -177.    -73.5 302  
#>  4 1985-10-01 00:00:00     -176.    -73.5 302  
#>  5 1985-10-01 00:00:00     -174.    -73.5 304  
#>  6 1985-10-01 00:00:00     -173.    -73.5 304  
#>  7 1985-10-01 00:00:00     -172.    -73.5 304  
#>  8 1985-10-01 00:00:00     -171.    -73.5 304  
#>  9 1985-10-01 00:00:00     -164.    -73.5 287  
#> 10 1985-10-01 00:00:00     -163.    -73.5 287  
#> # … with 18,953 more rows
```
…
---
# `NA` values

```r
nimbus %>%
  filter(ozone == ".")
#> # A tibble: 155 x 4
#>    date                longitude latitude ozone
#>    <dttm>                  <dbl>    <dbl> <chr>
#>  1 1985-10-01 00:00:00      70.6    -73.5 .    
#>  2 1985-10-01 00:00:00      71.9    -73.5 .    
#>  3 1985-10-01 00:00:00      73.1    -73.5 .    
#>  4 1985-10-01 00:00:00      74.4    -73.5 .    
#>  5 1985-10-01 00:00:00      75.6    -73.5 .    
#>  6 1985-10-01 00:00:00      76.9    -73.5 .    
#>  7 1985-10-01 00:00:00      78.1    -73.5 .    
#>  8 1985-10-01 00:00:00      79.4    -73.5 .    
#>  9 1985-10-01 00:00:00      65.6    -72.5 .    
#> 10 1985-10-01 00:00:00      66.9    -72.5 .    
#> # … with 145 more rows
```
…
.panelset[
.panel[.panel-name[Original]
.smallish[

```r
read_csv(here("materials", "data", "nimbus.csv"))
#> 
#> ── Column specification ────────────────────────────────────────────────────────
#> cols(
#>   date = col_datetime(format = ""),
#>   longitude = col_double(),
#>   latitude = col_double(),
#>   ozone = col_character()
#> )
#> # A tibble: 18,963 x 4
#>    date                longitude latitude ozone
#>    <dttm>                  <dbl>    <dbl> <chr>
#>  1 1985-10-01 00:00:00     -179.    -73.5 302  
#>  2 1985-10-01 00:00:00     -178.    -73.5 302  
#>  3 1985-10-01 00:00:00     -177.    -73.5 302  
#>  4 1985-10-01 00:00:00     -176.    -73.5 302  
#>  5 1985-10-01 00:00:00     -174.    -73.5 304  
#>  6 1985-10-01 00:00:00     -173.    -73.5 304  
#>  7 1985-10-01 00:00:00     -172.    -73.5 304  
#>  8 1985-10-01 00:00:00     -171.    -73.5 304  
#>  9 1985-10-01 00:00:00     -164.    -73.5 287  
#> 10 1985-10-01 00:00:00     -163.    -73.5 287  
#> # … with 18,953 more rows
```
…
.panel[.panel-name[Solution]
.smallish[

```r
read_csv(here("materials", "data", "nimbus.csv"), na = ".")
#> 
#> ── Column specification ────────────────────────────────────────────────────────
#> cols(
#>   date = col_datetime(format = ""),
#>   longitude = col_double(),
#>   latitude = col_double(),
#>   ozone = col_double()
#> )
#> # A tibble: 18,963 x 4
#>    date                longitude latitude ozone
#>    <dttm>                  <dbl>    <dbl> <dbl>
#>  1 1985-10-01 00:00:00     -179.    -73.5   302
#>  2 1985-10-01 00:00:00     -178.    -73.5   302
#>  3 1985-10-01 00:00:00     -177.    -73.5   302
#>  4 1985-10-01 00:00:00     -176.    -73.5   302
#>  5 1985-10-01 00:00:00     -174.    -73.5   304
#>  6 1985-10-01 00:00:00     -173.    -73.5   304
#>  7 1985-10-01 00:00:00     -172.    -73.5   304
#>  8 1985-10-01 00:00:00     -171.    -73.5   304
#>  9 1985-10-01 00:00:00     -164.    -73.5   287
#> 10 1985-10-01 00:00:00     -163.    -73.5   287
#> # … with 18,953 more rows
```
…
* Specify **`ozone`** as integer values.
]

02:00

---
class: your-turn

.panelset[
.panel[.panel-name[Solution]

```r
read_csv(here("materials", "data", "nimbus.csv"), na = ".",
         col_types = cols(ozone = col_integer()))
#> # A tibble: 18,963 x 4
#>    date                longitude latitude ozone
#>    <dttm>                  <dbl>    <dbl> <int>
#>  1 1985-10-01 00:00:00     -179.    -73.5   302
#>  2 1985-10-01 00:00:00     -178.    -73.5   302
#>  3 1985-10-01 00:00:00     -177.    -73.5   302
#>  4 1985-10-01 00:00:00     -176.    -73.5   302
#>  5 1985-10-01 00:00:00     -174.    -73.5   304
#>  6 1985-10-01 00:00:00     -173.    -73.5   304
#>  7 1985-10-01 00:00:00     -172.    -73.5   304
#>  8 1985-10-01 00:00:00     -171.    -73.5   304
#>  9 1985-10-01 00:00:00     -164.    -73.5   287
#> 10 1985-10-01 00:00:00     -163.    -73.5   287
#> # … with 18,953 more rows
```
…
