Case Study
…
* Extract data for just the 6th, 13th, and 20th of each month.
]

03:00

---
class: your-turn

```r
US_births_1994_2003 %>%
  select(-date) %>%
  filter(date_of_month %in% c(6, 13, 20))
#> # A tibble: 360 x 5
#>     year month date_of_month day_of_week births
#>    <int> <int>         <int> <ord>        <int>
#>  1  1994     1             6 Thurs        11406
#>  2  1994     1            13 Thurs        11212
#>  3  1994     1            20 Thurs        11682
#>  4  1994     2             6 Sun           8309
#>  5  1994     2            13 Sun           8171
#>  6  1994     2            20 Sun           8402
#>  7  1994     3             6 Sun           8389
#>  8  1994     3            13 Sun           8248
#>  9  1994     3            20 Sun           8243
#> 10  1994     4             6 Wed          11811
#> # … with 350 more rows
```
…
03:00

---
class: your-turn

```r
US_births_1994_2003 %>%
  select(-date) %>%
  filter(date_of_month %in% c(6, 13, 20)) %>%
  pivot_wider(names_from = date_of_month, values_from = births)
#> # A tibble: 120 x 6
#>     year month day_of_week   `6`  `13`  `20`
#>    <int> <int> <ord>       <int> <int> <int>
#>  1  1994     1 Thurs       11406 11212 11682
#>  2  1994     2 Sun          8309  8171  8402
#>  3  1994     3 Sun          8389  8248  8243
#>  4  1994     4 Wed         11811 11428 11585
#>  5  1994     5 Fri         11904 11085 11645
#>  6  1994     6 Mon         11130 10692 11337
#>  7  1994     7 Wed         13086 12134 12378
#>  8  1994     8 Sat          9336  9474  9646
#>  9  1994     9 Tues        11448 12560 12584
#> 10  1994    10 Thurs       12017 11398 11876
#> # … with 110 more rows
```
…
```r
births_diff_13 <- US_births_1994_2003 %>%
  select(-date) %>%
  filter(date_of_month %in% c(6, 13, 20)) %>%
  pivot_wider(names_from = date_of_month, values_from = births) %>%
  mutate(avg_6_20 = (`6` + `20`) / 2,
         diff_13 = ((`13` - avg_6_20) / avg_6_20) * 100)
```
]

.panel[.panel-name[Output]

```r
births_diff_13
#> # A tibble: 120 x 8
#>     year month day_of_week   `6`  `13`  `20` avg_6_20 diff_13
#>    <int> <int> <ord>       <int> <int> <int>    <dbl>   <dbl>
#>  1  1994     1 Thurs       11406 11212 11682   11544   -2.88 
#>  2  1994     2 Sun          8309  8171  8402    8356.  -2.21 
#>  3  1994     3 Sun          8389  8248  8243    8316   -0.818
#>  4  1994     4 Wed         11811 11428 11585   11698   -2.31 
#>  5  1994     5 Fri         11904 11085 11645   11774.  -5.86 
#>  6  1994     6 Mon         11130 10692 11337   11234.  -4.82 
#>  7  1994     7 Wed         13086 12134 12378   12732   -4.70 
#>  8  1994     8 Sat          9336  9474  9646    9491   -0.179
#>  9  1994     9 Tues        11448 12560 12584   12016    4.53 
#> 10  1994    10 Thurs       12017 11398 11876   11946.  -4.59 
#> # … with 110 more rows
```
…
