Prediction
…
---
# `predict()`

.big[
Use a fitted model to predict new **`y`** values from data. Returns a tibble.
]

```r
predict(
  object = lm_fit,  # fitted parsnip model
  new_data = ames   # data frame
)
#> # A tibble: 2,930 x 1
#>      .pred
#>      <dbl>
#>  1 198255.
#>  2 113367.
#>  3 161731.
#>  4 248964.
#>  5 195239.
#>  6 192447.
#>  7 162736.
#>  8 156258.
#>  9 193787.
#> 10 214786.
#> # … with 2,920 more rows
```
…
03:00

---
class: your-turn

```r
lm_fit <- fit(lm_spec, Sale_Price ~ Gr_Liv_Area, data = ames)

price_pred <- lm_fit %>% 
  predict(new_data = ames) %>% 
  mutate(truth = ames$Sale_Price)

price_pred
#> # A tibble: 2,930 x 2
#>      .pred  truth
#>      <dbl>  <int>
#>  1 198255. 215000
#>  2 113367. 105000
#>  3 161731. 172000
#>  4 248964. 244000
#>  5 195239. 189900
#>  6 192447. 195500
#>  7 162736. 213500
#>  8 156258. 191500
#>  9 193787. 236500
#> 10 214786. 189000
#> # … with 2,920 more rows
```
…
.big[
Extract training and testing sets from an rsplit
]

```r
training(ames_split)
testing(ames_split)
```

---

```r
train_set <- training(ames_split) 
train_set
#> # A tibble: 2,198 x 74
#>    MS_SubClass      MS_Zoning    Lot_Frontage Lot_Area Street Alley   Lot_Shape 
#>    <fct>            <fct>               <dbl>    <int> <fct>  <fct>   <fct>     
#>  1 One_Story_1946_… Residential…          141    31770 Pave   No_All… Slightly_…
#>  2 One_Story_1946_… Residential…           81    14267 Pave   No_All… Slightly_…
#>  3 Two_Story_1946_… Residential…           74    13830 Pave   No_All… Slightly_…
#>  4 Two_Story_1946_… Residential…           78     9978 Pave   No_All… Slightly_…
#>  5 One_Story_PUD_1… Residential…           41     4920 Pave   No_All… Regular   
#>  6 One_Story_PUD_1… Residential…           43     5005 Pave   No_All… Slightly_…
#>  7 Two_Story_1946_… Residential…           60     7500 Pave   No_All… Regular   
#>  8 Two_Story_1946_… Residential…           75    10000 Pave   No_All… Slightly_…
#>  9 One_Story_1946_… Residential…            0     7980 Pave   No_All… Slightly_…
#> 10 Two_Story_1946_… Residential…           63     8402 Pave   No_All… Slightly_…
#> # … with 2,188 more rows, and 67 more variables: Land_Contour <fct>,
#> #   Utilities <fct>, Lot_Config <fct>, Land_Slope <fct>, Neighborhood <fct>,
#> #   Condition_1 <fct>, Condition_2 <fct>, Bldg_Type <fct>, House_Style <fct>,
#> #   Overall_Cond <fct>, Year_Built <int>, Year_Remod_Add <int>,
#> #   Roof_Style <fct>, Roof_Matl <fct>, Exterior_1st <fct>, Exterior_2nd <fct>,
#> #   Mas_Vnr_Type <fct>, Mas_Vnr_Area <dbl>, Exter_Cond <fct>, Foundation <fct>,
#> #   Bsmt_Cond <fct>, Bsmt_Exposure <fct>, BsmtFin_Type_1 <fct>,
#> #   BsmtFin_SF_1 <dbl>, BsmtFin_Type_2 <fct>, BsmtFin_SF_2 <dbl>,
#> #   Bsmt_Unf_SF <dbl>, Total_Bsmt_SF <dbl>, Heating <fct>, Heating_QC <fct>,
…
