Classification
…
.panel[.panel-name[Make Predictions]

```r
predict(tree_fit, new_data = so_test)
#> # A tibble: 286 x 1
#>    .pred_class
#>    <fct>      
#>  1 Remote     
#>  2 Remote     
#>  3 Not remote 
#>  4 Not remote 
#>  5 Remote     
#>  6 Not remote 
#>  7 Remote     
#>  8 Not remote 
#>  9 Remote     
#> 10 Not remote 
#> # … with 276 more rows
```
…
---
class: your-turn

.panelset[
.panel[.panel-name[Create Predictions]

```r
tree_predict <- predict(tree_fit, new_data = so_test)

all_preds <- so_test %>%
  select(remote) %>%
  bind_cols(tree_predict)

all_preds
#> # A tibble: 286 x 2
#>    remote .pred_class
#>    <fct>  <fct>      
#>  1 Remote Remote     
#>  2 Remote Remote     
#>  3 Remote Not remote 
#>  4 Remote Not remote 
#>  5 Remote Remote     
#>  6 Remote Not remote 
#>  7 Remote Remote     
#>  8 Remote Not remote 
#>  9 Remote Remote     
#> 10 Remote Not remote 
#> # … with 276 more rows
```
…
???

We don't have `.pred_Remote`. How do we get that?

---

```r
all_preds <- so_test %>%
  select(remote) %>%
  bind_cols(predict(tree_fit, new_data = so_test)) %>%
  bind_cols(predict(tree_fit, new_data = so_test, type = "prob"))

all_preds
#> # A tibble: 286 x 4
#>    remote .pred_class .pred_Remote `.pred_Not remote`
#>    <fct>  <fct>              <dbl>              <dbl>
#>  1 Remote Remote             0.687              0.313
#>  2 Remote Remote             0.687              0.313
#>  3 Remote Not remote         0.368              0.632
#>  4 Remote Not remote         0.368              0.632
#>  5 Remote Remote             0.687              0.313
#>  6 Remote Not remote         0.368              0.632
#>  7 Remote Remote             0.687              0.313
#>  8 Remote Not remote         0.368              0.632
#>  9 Remote Remote             0.687              0.313
#> 10 Remote Not remote         0.368              0.632
#> # … with 276 more rows
```
…
