Resampling
…
.footnote[Artwork by [@allison_horst](https://twitter.com/allison_horst)]

???
[Ah]-dell-ee

---
.big[What is the correlation between bill length and bill depth?]

```r
library(palmerpenguins)
penguins
#> # A tibble: 344 x 8
#>    species island    bill_length_mm bill_depth_mm flipper_length_mm body_mass_g
#>    <fct>   <fct>              <dbl>         <dbl>             <int>       <int>
#>  1 Adelie  Torgersen           39.1          18.7               181        3750
#>  2 Adelie  Torgersen           39.5          17.4               186        3800
#>  3 Adelie  Torgersen           40.3          18                 195        3250
#>  4 Adelie  Torgersen           NA            NA                  NA          NA
#>  5 Adelie  Torgersen           36.7          19.3               193        3450
#>  6 Adelie  Torgersen           39.3          20.6               190        3650
#>  7 Adelie  Torgersen           38.9          17.8               181        3625
#>  8 Adelie  Torgersen           39.2          19.6               195        4675
#>  9 Adelie  Torgersen           34.1          18.1               193        3475
#> 10 Adelie  Torgersen           42            20.2               190        4250
#> # … with 334 more rows, and 2 more variables: sex <fct>, year <int>
```
…
Keep `set.seed(100)`!
]

02:00

---
class: your-turn

```r
set.seed(100)
penguin_boot <- bootstraps(penguins, times = 100)
penguin_boot
#> # Bootstrap sampling 
#> # A tibble: 100 x 2
#>    splits            id          
#>    <list>            <chr>       
#>  1 <split [344/134]> Bootstrap001
#>  2 <split [344/126]> Bootstrap002
#>  3 <split [344/124]> Bootstrap003
#>  4 <split [344/129]> Bootstrap004
#>  5 <split [344/127]> Bootstrap005
#>  6 <split [344/124]> Bootstrap006
#>  7 <split [344/127]> Bootstrap007
#>  8 <split [344/125]> Bootstrap008
#>  9 <split [344/128]> Bootstrap009
#> 10 <split [344/123]> Bootstrap010
#> # … with 90 more rows
```

???

What is a `<list>`?

---

```r
penguin_boot
#> # Bootstrap sampling 
#> # A tibble: 100 x 2
#>    splits            id          
#>    <list>            <chr>       
#>  1 <split [344/134]> Bootstrap001
#>  2 <split [344/126]> Bootstrap002
#>  3 <split [344/124]> Bootstrap003
#>  4 <split [344/129]> Bootstrap004
#>  5 <split [344/127]> Bootstrap005
#>  6 <split [344/124]> Bootstrap006
#>  7 <split [344/127]> Bootstrap007
#>  8 <split [344/125]> Bootstrap008
#>  9 <split [344/128]> Bootstrap009
#> 10 <split [344/123]> Bootstrap010
#> # … with 90 more rows
```
…
--

.pull-left[
### `analysis()`

.smaller[

```r
analysis(boot1)
#> # A tibble: 344 x 8
#>    species   island    bill_length_mm bill_depth_mm flipper_length_… body_mass_g
#>    <fct>     <fct>              <dbl>         <dbl>            <int>       <int>
#>  1 Gentoo    Biscoe              45.2          15.8              215        5300
#>  2 Adelie    Biscoe              45.6          20.3              191        4600
#>  3 Gentoo    Biscoe              50.1          15                225        5000
#>  4 Adelie    Torgersen           NA            NA                 NA          NA
#>  5 Chinstrap Dream               49.7          18.6              195        3600
#>  6 Chinstrap Dream               49.8          17.3              198        3675
#>  7 Adelie    Dream               40.3          18.5              196        4350
#>  8 Adelie    Torgersen           38.9          17.8              181        3625
#>  9 Gentoo    Biscoe              47.3          15.3              222        5250
#> 10 Chinstrap Dream               43.2          16.6              187        2900
#> # … with 334 more rows, and 2 more variables: sex <fct>, year <int>
```
]
]

--

.pull-right[
### `assessment()`

.smaller[

```r
assessment(boot1)
#> # A tibble: 134 x 8
#>    species island    bill_length_mm bill_depth_mm flipper_length_mm body_mass_g
#>    <fct>   <fct>              <dbl>         <dbl>             <int>       <int>
#>  1 Adelie  Torgersen           36.7          19.3               193        3450
#>  2 Adelie  Torgersen           39.3          20.6               190        3650
#>  3 Adelie  Torgersen           39.2          19.6               195        4675
#>  4 Adelie  Torgersen           34.1          18.1               193        3475
#>  5 Adelie  Torgersen           42            20.2               190        4250
#>  6 Adelie  Torgersen           38.7          19                 195        3450
#>  7 Adelie  Torgersen           42.5          20.7               197        4500
#>  8 Adelie  Biscoe              37.7          18.7               180        3600
#>  9 Adelie  Biscoe              38.2          18.1               185        3950
#> 10 Adelie  Biscoe              40.6          18.6               183        3550
#> # … with 124 more rows, and 2 more variables: sex <fct>, year <int>
```
]
]

---
class: pop-quiz

# Pop quiz!

Why is the assessment set a different size for each bootstrap resample?

```
#> # Bootstrap sampling 
#> # A tibble: 100 x 2
#>    splits            id          
#>    <list>            <chr>       
#>  1 <split [344/134]> Bootstrap001
#>  2 <split [344/126]> Bootstrap002
#>  3 <split [344/124]> Bootstrap003
#>  4 <split [344/129]> Bootstrap004
#>  5 <split [344/127]> Bootstrap005
#>  6 <split [344/124]> Bootstrap006
#>  7 <split [344/127]> Bootstrap007
#>  8 <split [344/125]> Bootstrap008
#>  9 <split [344/128]> Bootstrap009
#> 10 <split [344/123]> Bootstrap010
#> # … with 90 more rows
```
…
---
# `map()` + `mutate()`

```r
penguin_boot %>%
  mutate(corr = map(splits, penguin_cor))
#> # Bootstrap sampling 
#> # A tibble: 100 x 3
#>    splits            id           corr     
#>    <list>            <chr>        <list>   
#>  1 <split [344/134]> Bootstrap001 <dbl [1]>
#>  2 <split [344/126]> Bootstrap002 <dbl [1]>
#>  3 <split [344/124]> Bootstrap003 <dbl [1]>
#>  4 <split [344/129]> Bootstrap004 <dbl [1]>
#>  5 <split [344/127]> Bootstrap005 <dbl [1]>
#>  6 <split [344/124]> Bootstrap006 <dbl [1]>
#>  7 <split [344/127]> Bootstrap007 <dbl [1]>
#>  8 <split [344/125]> Bootstrap008 <dbl [1]>
#>  9 <split [344/128]> Bootstrap009 <dbl [1]>
#> 10 <split [344/123]> Bootstrap010 <dbl [1]>
#> # … with 90 more rows
```

???

What's wrong with this? What could be improved?

---
# `map_dbl()` + `mutate()`

```r
penguin_boot %>%
  mutate(corr = map_dbl(splits, penguin_cor))
#> # Bootstrap sampling 
#> # A tibble: 100 x 3
#>    splits            id             corr
#>    <list>            <chr>         <dbl>
#>  1 <split [344/134]> Bootstrap001 -0.125
#>  2 <split [344/126]> Bootstrap002 -0.254
#>  3 <split [344/124]> Bootstrap003 -0.199
#>  4 <split [344/129]> Bootstrap004 -0.248
#>  5 <split [344/127]> Bootstrap005 -0.245
#>  6 <split [344/124]> Bootstrap006 -0.279
#>  7 <split [344/127]> Bootstrap007 -0.278
#>  8 <split [344/125]> Bootstrap008 -0.205
#>  9 <split [344/128]> Bootstrap009 -0.243
#> 10 <split [344/123]> Bootstrap010 -0.275
#> # … with 90 more rows
```
…
