Workflows
…
# Pop quiz!

What will this code do?

```r
ames_zsplit <- ames %>% 
  mutate(z_price = (Sale_Price - mean(Sale_Price)) / sd(Sale_Price)) %>% 
  initial_split()
```

--

```
#> # A tibble: 2,198 x 2
#>    Sale_Price  z_price
#>         <int>    <dbl>
#>  1     105000 -0.949  
#>  2     172000 -0.110  
#>  3     244000  0.791  
#>  4     213500  0.409  
#>  5     191500  0.134  
#>  6     236500  0.697  
#>  7     189000  0.103  
#>  8     175900 -0.0613 
#>  9     185000  0.0526 
#> 10     180400 -0.00496
#> # â€¦ with 2,188 more rows
```
…
---
class: your-turn

```r
all_fitwf <- 
  fit_resamples(
    rt_wf,
    resamples = ames_folds,
*   control = control_resamples(save_pred = TRUE)
)

all_fitwf %>%
  collect_predictions()
#> # A tibble: 2,198 x 5
#>    id       .pred  .row Sale_Price .config             
#>    <chr>    <dbl> <int>      <int> <chr>               
#>  1 Fold01 166955.    10     171500 Preprocessor1_Model1
#>  2 Fold01 166955.    13     141000 Preprocessor1_Model1
#>  3 Fold01 130970.    18     149000 Preprocessor1_Model1
#>  4 Fold01  98159.    21     115000 Preprocessor1_Model1
#>  5 Fold01 385912.    31     395192 Preprocessor1_Model1
#>  6 Fold01 238020.    42     205000 Preprocessor1_Model1
#>  7 Fold01 238020.    57     221500 Preprocessor1_Model1
#>  8 Fold01 160724.    75     169000 Preprocessor1_Model1
#>  9 Fold01 231861.    96     205000 Preprocessor1_Model1
#> 10 Fold01 130970.   108     172500 Preprocessor1_Model1
#> # â€¦ with 2,188 more rows
```
…
