Feature Engineering
…
.footnote[.display[You don't need to do this! The fit functions do it for you]]

---
background-image: url(images/recipes/recipes.png)
background-size: cover

.footnote[Artwork by [@allison_horst](https://twitter.com/allison_horst)]

---

```r
rec %>% 
  prep(ames_train) %>%
  bake(ames_test) 
#> # A tibble: 732 x 81
#>    MS_SubClass      MS_Zoning     Lot_Frontage Lot_Area Street Alley  Lot_Shape 
#>    <fct>            <fct>                <dbl>    <dbl> <fct>  <fct>  <fct>     
#>  1 One_Story_1946_… Residential_…      2.48     3.00    Pave   No_Al… Slightly_…
#>  2 One_Story_1946_… Residential_…      0.663    0.217   Pave   No_Al… Regular   
#>  3 One_Story_1946_… Residential_…      1.05     0.153   Pave   No_Al… Regular   
#>  4 Two_Story_1946_… Residential_…      0.514   -0.00732 Pave   No_Al… Slightly_…
#>  5 Two_Story_1946_… Residential_…     -0.320    6.00    Pave   No_Al… Moderatel…
#>  6 One_Story_1946_… Residential_…      0.901    0.185   Pave   No_Al… Regular   
#>  7 One_Story_1946_… Residential_…      0.216   -0.221   Pave   No_Al… Regular   
#>  8 Two_Story_PUD_1… Residential_…     -1.09    -1.16    Pave   No_Al… Regular   
#>  9 Two_Story_1946_… Residential_…     -1.72    -0.304   Pave   No_Al… Regular   
#> 10 Two_Story_1946_… Residential_…      0.00782  0.927   Pave   No_Al… Moderatel…
#> # … with 722 more rows, and 74 more variables: Land_Contour <fct>,
#> #   Utilities <fct>, Lot_Config <fct>, Land_Slope <fct>, Neighborhood <fct>,
#> #   Condition_1 <fct>, Condition_2 <fct>, Bldg_Type <fct>, House_Style <fct>,
#> #   Overall_Qual <fct>, Overall_Cond <fct>, Year_Built <dbl>,
#> #   Year_Remod_Add <dbl>, Roof_Style <fct>, Roof_Matl <fct>,
#> #   Exterior_1st <fct>, Exterior_2nd <fct>, Mas_Vnr_Type <fct>,
#> #   Mas_Vnr_Area <dbl>, Exter_Qual <fct>, Exter_Cond <fct>, Foundation <fct>,
#> #   Bsmt_Qual <fct>, Bsmt_Cond <fct>, Bsmt_Exposure <fct>,
#> #   BsmtFin_Type_1 <fct>, BsmtFin_SF_1 <dbl>, BsmtFin_Type_2 <fct>,
…
.right-column[

```
# A tibble: 2,930 x 6
     Hip Gable Mansard Gambrel  Shed  Flat
   <dbl> <dbl>   <dbl>   <dbl> <dbl> <dbl>
 1     1     0       0       0     0     0
 2     0     1       0       0     0     0
 3     1     0       0       0     0     0
 4     1     0       0       0     0     0
 5     0     1       0       0     0     0
 6     0     1       0       0     0     0
 7     0     1       0       0     0     0
 8     0     1       0       0     0     0
 9     0     1       0       0     0     0
10     0     1       0       0     0     0
# … with 2,920 more rows
```
…
