Model Tuning
…
---
# Predict the test set

```r
so_test_results %>%
  collect_predictions()
#> # A tibble: 1,397 x 7
#>    id        .pred_Remote `.pred_Not remot…  .row .pred_class Remote  .config   
#>    <chr>            <dbl>             <dbl> <int> <fct>       <fct>   <chr>     
#>  1 train/te…        0.552             0.448     2 Remote      Remote  Preproces…
#>  2 train/te…        0.566             0.434     9 Remote      Not re… Preproces…
#>  3 train/te…        0.450             0.550    10 Not remote  Not re… Preproces…
#>  4 train/te…        0.555             0.445    17 Remote      Not re… Preproces…
#>  5 train/te…        0.620             0.380    23 Remote      Not re… Preproces…
#>  6 train/te…        0.466             0.534    27 Not remote  Not re… Preproces…
#>  7 train/te…        0.489             0.511    28 Not remote  Not re… Preproces…
#>  8 train/te…        0.440             0.560    45 Not remote  Not re… Preproces…
#>  9 train/te…        0.397             0.603    46 Not remote  Not re… Preproces…
#> 10 train/te…        0.488             0.512    48 Not remote  Not re… Preproces…
#> # … with 1,387 more rows
```
…
