Wrap-Up
…
---
# My use case

.pull-left[
.small[

```r
dat3
#> # A tibble: 50 x 4
#>    student_id skill_1 skill_2 skill_3
#>         <int>   <int>   <int>   <int>
#>  1       3462       0       0       1
#>  2       3510       1       1       1
#>  3       9717       1       0       1
#>  4       3985       0       1       0
#>  5       2841       1       0       1
#>  6       4370       1       0       1
#>  7       5760       0       0       1
#>  8       7745       0       0       0
#>  9       3756       0       0       1
#> 10       6106       1       0       1
#> # … with 40 more rows
```
]
]

.pull-right[
.small[

```r
dat4
#> # A tibble: 50 x 5
#>    student_id skill_1 skill_2 skill_3 skill_4
#>         <int>   <int>   <int>   <int>   <int>
#>  1       1472       0       1       1       1
#>  2       7097       0       1       0       1
#>  3       2148       0       1       1       0
#>  4       3036       0       1       0       1
#>  5       3312       1       1       1       1
#>  6       8740       0       1       0       0
#>  7       9649       0       1       1       1
#>  8       2077       0       0       0       1
#>  9       6014       0       1       0       0
#> 10       6657       1       0       0       1
#> # … with 40 more rows
```
…
???

I have some data that shows which of 3 skills each student has mastered. I want to sort the data by the total number of skills mastered, and then by each skill. But the number of skills can change. How can I write a solution that will work for any number of skills?

---
# Include data

**Question**: How do I sort a data frame by total skills and then each component skill?

.pull-left[
.smallish[

```r
dat3
#> # A tibble: 50 x 4
#>    student_id skill_1 skill_2 skill_3
#>         <int>   <int>   <int>   <int>
#>  1       3462       0       0       1
#>  2       3510       1       1       1
#>  3       9717       1       0       1
#>  4       3985       0       1       0
#>  5       2841       1       0       1
#>  6       4370       1       0       1
#>  7       5760       0       0       1
#>  8       7745       0       0       0
#>  9       3756       0       0       1
#> 10       6106       1       0       1
#> # … with 40 more rows
```
…
